%YAML 1.1
%TAG !u! tag:unity3d.com,2011:
--- !u!1045 &1
EditorBuildSettings:
  m_ObjectHideFlags: 0
  serializedVersion: 2
  m_Scenes:
  - enabled: 1
    path: Assets/Scenes/multiplayer.unity
    guid: 96af7ecb5e9220a41ac8a584dcb2dad7
  - enabled: 1
    path: Assets/Scenes/menu.unity
    guid: edf9d15ab32a12f408aa34f5024532fa
  - enabled: 1
    path: Assets/Scenes/local_multiplayer.unity
    guid: 6cc43146212a69e43a93900d0334e780
  - enabled: 1
    path: Assets/Scenes/track01.unity
    guid: fe60ada0123bb4643aa97c983d21a008
  - enabled: 1
    path: Assets/Scenes/input_manager.unity
    guid: e4ab57d94ebed324fb87afcd829aa041
